-- Merging decision tree log ---
manifest
ADDED from /Users/kamalsingh/omniture/mobile/Android/AdobeSampleApp/app/src/main/AndroidManifest.xml:2:1-34:12
	package
		ADDED from /Users/kamalsingh/omniture/mobile/Android/AdobeSampleApp/app/src/main/AndroidManifest.xml:3:11-47
		INJECTED from /Users/kamalsingh/omniture/mobile/Android/AdobeSampleApp/app/src/main/AndroidManifest.xml
		INJECTED from /Users/kamalsingh/omniture/mobile/Android/AdobeSampleApp/app/src/main/AndroidManifest.xml
	android:versionName
		ADDED from /Users/kamalsingh/omniture/mobile/Android/AdobeSampleApp/app/src/main/AndroidManifest.xml:5:11-36
		INJECTED from /Users/kamalsingh/omniture/mobile/Android/AdobeSampleApp/app/src/main/AndroidManifest.xml
		INJECTED from /Users/kamalsingh/omniture/mobile/Android/AdobeSampleApp/app/src/main/AndroidManifest.xml
	android:versionCode
		ADDED from /Users/kamalsingh/omniture/mobile/Android/AdobeSampleApp/app/src/main/AndroidManifest.xml:4:11-34
		INJECTED from /Users/kamalsingh/omniture/mobile/Android/AdobeSampleApp/app/src/main/AndroidManifest.xml
		INJECTED from /Users/kamalsingh/omniture/mobile/Android/AdobeSampleApp/app/src/main/AndroidManifest.xml
	xmlns:android
		ADDED from /Users/kamalsingh/omniture/mobile/Android/AdobeSampleApp/app/src/main/AndroidManifest.xml:2:11-69
uses-sdk
ADDED from /Users/kamalsingh/omniture/mobile/Android/AdobeSampleApp/app/src/main/AndroidManifest.xml:6:5-42
	android:targetSdkVersion
		INJECTED from /Users/kamalsingh/omniture/mobile/Android/AdobeSampleApp/app/src/main/AndroidManifest.xml
		INJECTED from /Users/kamalsingh/omniture/mobile/Android/AdobeSampleApp/app/src/main/AndroidManifest.xml
	android:minSdkVersion
		ADDED from /Users/kamalsingh/omniture/mobile/Android/AdobeSampleApp/app/src/main/AndroidManifest.xml:6:15-40
		INJECTED from /Users/kamalsingh/omniture/mobile/Android/AdobeSampleApp/app/src/main/AndroidManifest.xml
		INJECTED from /Users/kamalsingh/omniture/mobile/Android/AdobeSampleApp/app/src/main/AndroidManifest.xml
uses-permission#android.permission.INTERNET
ADDED from /Users/kamalsingh/omniture/mobile/Android/AdobeSampleApp/app/src/main/AndroidManifest.xml:7:5-67
	android:name
		ADDED from /Users/kamalsingh/omniture/mobile/Android/AdobeSampleApp/app/src/main/AndroidManifest.xml:7:22-64
uses-permission#android.permission.ACCESS_NETWORK_STATE
ADDED from /Users/kamalsingh/omniture/mobile/Android/AdobeSampleApp/app/src/main/AndroidManifest.xml:8:5-79
	android:name
		ADDED from /Users/kamalsingh/omniture/mobile/Android/AdobeSampleApp/app/src/main/AndroidManifest.xml:8:22-76
uses-permission#android.permission.ACCESS_LOCATION_EXTRA_COMMANDS
ADDED from /Users/kamalsingh/omniture/mobile/Android/AdobeSampleApp/app/src/main/AndroidManifest.xml:9:5-89
	android:name
		ADDED from /Users/kamalsingh/omniture/mobile/Android/AdobeSampleApp/app/src/main/AndroidManifest.xml:9:22-86
uses-permission#android.permission.ACCESS_FINE_LOCATION
ADDED from /Users/kamalsingh/omniture/mobile/Android/AdobeSampleApp/app/src/main/AndroidManifest.xml:10:5-79
	android:name
		ADDED from /Users/kamalsingh/omniture/mobile/Android/AdobeSampleApp/app/src/main/AndroidManifest.xml:10:22-76
uses-permission#android.permission.ACCESS_COARSE_LOCATION
ADDED from /Users/kamalsingh/omniture/mobile/Android/AdobeSampleApp/app/src/main/AndroidManifest.xml:11:5-81
	android:name
		ADDED from /Users/kamalsingh/omniture/mobile/Android/AdobeSampleApp/app/src/main/AndroidManifest.xml:11:22-78
uses-permission#android.permission.ACCESS_MOCK_LOCATION
ADDED from /Users/kamalsingh/omniture/mobile/Android/AdobeSampleApp/app/src/main/AndroidManifest.xml:12:5-79
	android:name
		ADDED from /Users/kamalsingh/omniture/mobile/Android/AdobeSampleApp/app/src/main/AndroidManifest.xml:12:22-76
application
ADDED from /Users/kamalsingh/omniture/mobile/Android/AdobeSampleApp/app/src/main/AndroidManifest.xml:13:5-33:19
	android:label
		ADDED from /Users/kamalsingh/omniture/mobile/Android/AdobeSampleApp/app/src/main/AndroidManifest.xml:13:18-47
	android:icon
		ADDED from /Users/kamalsingh/omniture/mobile/Android/AdobeSampleApp/app/src/main/AndroidManifest.xml:13:48-77
activity#com.adobe.mobile.MessageFullScreenActivity
ADDED from /Users/kamalsingh/omniture/mobile/Android/AdobeSampleApp/app/src/main/AndroidManifest.xml:14:9-16:75
	android:windowSoftInputMode
		ADDED from /Users/kamalsingh/omniture/mobile/Android/AdobeSampleApp/app/src/main/AndroidManifest.xml:16:13-72
	android:theme
		ADDED from /Users/kamalsingh/omniture/mobile/Android/AdobeSampleApp/app/src/main/AndroidManifest.xml:15:13-83
	android:name
		ADDED from /Users/kamalsingh/omniture/mobile/Android/AdobeSampleApp/app/src/main/AndroidManifest.xml:14:19-76
receiver#com.adobe.mobile.MessageNotificationHandler
ADDED from /Users/kamalsingh/omniture/mobile/Android/AdobeSampleApp/app/src/main/AndroidManifest.xml:17:9-80
	android:name
		ADDED from /Users/kamalsingh/omniture/mobile/Android/AdobeSampleApp/app/src/main/AndroidManifest.xml:17:19-77
activity#com.adobe.adbmobilesamples.MenuActivity
ADDED from /Users/kamalsingh/omniture/mobile/Android/AdobeSampleApp/app/src/main/AndroidManifest.xml:18:9-23:20
	android:screenOrientation
		ADDED from /Users/kamalsingh/omniture/mobile/Android/AdobeSampleApp/app/src/main/AndroidManifest.xml:18:75-111
	android:label
		ADDED from /Users/kamalsingh/omniture/mobile/Android/AdobeSampleApp/app/src/main/AndroidManifest.xml:18:47-74
	android:name
		ADDED from /Users/kamalsingh/omniture/mobile/Android/AdobeSampleApp/app/src/main/AndroidManifest.xml:18:19-46
intent-filter#android.intent.action.MAIN+android.intent.category.LAUNCHER
ADDED from /Users/kamalsingh/omniture/mobile/Android/AdobeSampleApp/app/src/main/AndroidManifest.xml:19:13-22:29
action#android.intent.action.MAIN
ADDED from /Users/kamalsingh/omniture/mobile/Android/AdobeSampleApp/app/src/main/AndroidManifest.xml:20:17-68
	android:name
		ADDED from /Users/kamalsingh/omniture/mobile/Android/AdobeSampleApp/app/src/main/AndroidManifest.xml:20:25-66
category#android.intent.category.LAUNCHER
ADDED from /Users/kamalsingh/omniture/mobile/Android/AdobeSampleApp/app/src/main/AndroidManifest.xml:21:17-76
	android:name
		ADDED from /Users/kamalsingh/omniture/mobile/Android/AdobeSampleApp/app/src/main/AndroidManifest.xml:21:27-74
activity#com.adobe.adbmobilesamples.SimpleTrackingActivity
ADDED from /Users/kamalsingh/omniture/mobile/Android/AdobeSampleApp/app/src/main/AndroidManifest.xml:24:9-97
	android:screenOrientation
		ADDED from /Users/kamalsingh/omniture/mobile/Android/AdobeSampleApp/app/src/main/AndroidManifest.xml:24:58-94
	android:name
		ADDED from /Users/kamalsingh/omniture/mobile/Android/AdobeSampleApp/app/src/main/AndroidManifest.xml:24:19-57
activity#com.adobe.adbmobilesamples.GalleryActivity
ADDED from /Users/kamalsingh/omniture/mobile/Android/AdobeSampleApp/app/src/main/AndroidManifest.xml:25:9-90
	android:screenOrientation
		ADDED from /Users/kamalsingh/omniture/mobile/Android/AdobeSampleApp/app/src/main/AndroidManifest.xml:25:51-87
	android:name
		ADDED from /Users/kamalsingh/omniture/mobile/Android/AdobeSampleApp/app/src/main/AndroidManifest.xml:25:19-50
activity#com.adobe.adbmobilesamples.TimedActionsActivity
ADDED from /Users/kamalsingh/omniture/mobile/Android/AdobeSampleApp/app/src/main/AndroidManifest.xml:26:9-95
	android:screenOrientation
		ADDED from /Users/kamalsingh/omniture/mobile/Android/AdobeSampleApp/app/src/main/AndroidManifest.xml:26:56-92
	android:name
		ADDED from /Users/kamalsingh/omniture/mobile/Android/AdobeSampleApp/app/src/main/AndroidManifest.xml:26:19-55
activity#com.adobe.adbmobilesamples.PrivacyActivity
ADDED from /Users/kamalsingh/omniture/mobile/Android/AdobeSampleApp/app/src/main/AndroidManifest.xml:27:9-90
	android:screenOrientation
		ADDED from /Users/kamalsingh/omniture/mobile/Android/AdobeSampleApp/app/src/main/AndroidManifest.xml:27:51-87
	android:name
		ADDED from /Users/kamalsingh/omniture/mobile/Android/AdobeSampleApp/app/src/main/AndroidManifest.xml:27:19-50
activity#com.adobe.adbmobilesamples.MediaActivity
ADDED from /Users/kamalsingh/omniture/mobile/Android/AdobeSampleApp/app/src/main/AndroidManifest.xml:28:9-88
	android:screenOrientation
		ADDED from /Users/kamalsingh/omniture/mobile/Android/AdobeSampleApp/app/src/main/AndroidManifest.xml:28:49-85
	android:name
		ADDED from /Users/kamalsingh/omniture/mobile/Android/AdobeSampleApp/app/src/main/AndroidManifest.xml:28:19-48
activity#com.adobe.adbmobilesamples.TargetingLocationActivity
ADDED from /Users/kamalsingh/omniture/mobile/Android/AdobeSampleApp/app/src/main/AndroidManifest.xml:29:9-100
	android:screenOrientation
		ADDED from /Users/kamalsingh/omniture/mobile/Android/AdobeSampleApp/app/src/main/AndroidManifest.xml:29:61-97
	android:name
		ADDED from /Users/kamalsingh/omniture/mobile/Android/AdobeSampleApp/app/src/main/AndroidManifest.xml:29:19-60
activity#com.adobe.adbmobilesamples.LifetimeValueActivity
ADDED from /Users/kamalsingh/omniture/mobile/Android/AdobeSampleApp/app/src/main/AndroidManifest.xml:31:9-96
	android:screenOrientation
		ADDED from /Users/kamalsingh/omniture/mobile/Android/AdobeSampleApp/app/src/main/AndroidManifest.xml:31:57-93
	android:name
		ADDED from /Users/kamalsingh/omniture/mobile/Android/AdobeSampleApp/app/src/main/AndroidManifest.xml:31:19-56
activity#com.adobe.adbmobilesamples.VideoPlayerActivity
ADDED from /Users/kamalsingh/omniture/mobile/Android/AdobeSampleApp/app/src/main/AndroidManifest.xml:32:9-57
	android:name
		ADDED from /Users/kamalsingh/omniture/mobile/Android/AdobeSampleApp/app/src/main/AndroidManifest.xml:32:19-54
